Análisis de Datos Categóricos (SOL3070)
…
class: inverse, center, middle

#Tablas de Contingencia

---
## Datos relaciones extra-matrimoniales, ejemplo

- Usaremos datos del artículo _A theory of extramarital affairs_ (Fair 1978), publicado en JPE. 

- Muestra de 601 individuos en USA. Información sobre relaciones extra -matrimoniales que cada individuo. También covariables como género, edad, años de matrimonio, paternidad, educación, etc.

--

```
## # A tibble: 601 x 10
##    sex      age    ym child religious education occupation  rate nbaffairs everaffair
##    <fct>  <dbl> <dbl> <fct>     <int>     <dbl>      <int> <int>     <dbl> <chr>     
##  1 male      37 10    no            3        18          7     4         0 Never     
##  2 female    27  4    no            4        14          6     4         0 Never     
##  3 female    32 15    yes           1        12          1     4         0 Never     
##  4 male      57 15    yes           5        18          6     5         0 Never     
##  5 male      22  0.75 no            2        17          6     3         0 Never     
##  6 female    32  1.5  no            2        17          5     5         0 Never     
##  7 female    22  0.75 no            2        12          1     3         0 Never     
##  8 male      57 15    yes           2        14          4     4         0 Never     
##  9 female    32 15    yes           4        16          1     2         0 Never     
## 10 male      22  1.5  no            4        14          4     5         0 Never     
## # … with 591 more rows
```
…
