Ayudantía 3
…
# B.- Medidas de Asociación

```r
library(tibble)
```

```r
#Sintaxis
#Cargar base de datos
load("nsca2018.Rda")
tibble(data1)
```

```
# # A tibble: 8,609 x 11
#    sexo    edad raza   educacion  hijes jazz  clasica opera ballet museos libros
#    <fct>  <dbl> <fct>  <fct>      <dbl> <fct> <fct>   <fct> <fct>  <fct>  <fct> 
#  1 (2) F…    48 (01) … (37) 11th…     0 (2) … (2) No  (2) … (2) No (2) No (2) No
#  2 (2) F…    78 (01) … (39) High…     0 (2) … (2) No  (2) … (2) No (2) No (2) No
#  3 (2) F…    72 (01) … (39) High…     0 (2) … (2) No  (2) … (2) No (2) No (1) Y…
#  4 (1) M…    51 (01) … (46) Doct…     1 (2) … (2) No  (2) … (2) No (2) No (2) No
#  5 (2) F…    57 (01) … (39) High…     0 (2) … (2) No  (2) … (2) No (2) No (2) No
#  6 (2) F…    66 (01) … (39) High…     0 (2) … (2) No  (2) … (2) No (2) No (1) Y…
#  7 (1) M…    73 (01) … (39) High…     0 (2) … (2) No  (2) … (2) No (2) No (2) No
#  8 (1) M…    19 (01) … (39) High…     0 (2) … (2) No  (2) … (2) No (2) No (2) No
#  9 (2) F…    68 (01) … (36) 10th…     0 (2) … (2) No  (2) … (2) No (2) No (2) No
# 10 (1) M…    63 (01) … (39) High…     0 (2) … (2) No  (2) … (2) No (2) No (1) Y…
# # … with 8,599 more rows
```
…
---

# D.- Lineal Probability Model (LPM)

- Codififación de variables y ajuste de LPM: 

```r
#Sintaxis
#Nueva base de datos
tibble(data1)
```

```
# # A tibble: 8,609 x 11
#    sexo    edad raza   educacion  hijes jazz  clasica opera ballet museos libros
#    <fct>  <dbl> <fct>  <fct>      <dbl> <fct> <fct>   <fct> <fct>  <fct>  <fct> 
#  1 (2) F…    48 (01) … (37) 11th…     0 (2) … (2) No  (2) … (2) No (2) No (2) No
#  2 (2) F…    78 (01) … (39) High…     0 (2) … (2) No  (2) … (2) No (2) No (2) No
#  3 (2) F…    72 (01) … (39) High…     0 (2) … (2) No  (2) … (2) No (2) No (1) Y…
#  4 (1) M…    51 (01) … (46) Doct…     1 (2) … (2) No  (2) … (2) No (2) No (2) No
#  5 (2) F…    57 (01) … (39) High…     0 (2) … (2) No  (2) … (2) No (2) No (2) No
#  6 (2) F…    66 (01) … (39) High…     0 (2) … (2) No  (2) … (2) No (2) No (1) Y…
#  7 (1) M…    73 (01) … (39) High…     0 (2) … (2) No  (2) … (2) No (2) No (2) No
#  8 (1) M…    19 (01) … (39) High…     0 (2) … (2) No  (2) … (2) No (2) No (2) No
#  9 (2) F…    68 (01) … (36) 10th…     0 (2) … (2) No  (2) … (2) No (2) No (2) No
# 10 (1) M…    63 (01) … (39) High…     0 (2) … (2) No  (2) … (2) No (2) No (1) Y…
# # … with 8,599 more rows
```
…
